<profile version="589824"
             storageformat="1"
             name="SplicerHQVid"
             description="Default SplicerTranscoding Profile">
                   <streamconfig majortype="{73647561-0000-0010-8000-00AA00389B71}"
                   streamnumber="1"
                   streamname="Audio Stream"
                   inputname="Audio409"
                   bitrate="22008"
                   bufferwindow="-1"
                   reliabletransport="0"
                   decodercomplexity=""
                   rfc1766langid="en-us"
 >
             <wmmediatype subtype="{00000161-0000-0010-8000-00AA00389B71}"
                   bfixedsizesamples="1"
                   btemporalcompression="0"
                   lsamplesize="894">
           <waveformatex wFormatTag="353"
                         nChannels="2"
                         nSamplesPerSec="22050"
                         nAvgBytesPerSec="2751"
                         nBlockAlign="894"
                         wBitsPerSample="16"
                         codecdata="004400000F00F90D0000"/>
            </wmmediatype>
            </streamconfig>
                   <streamconfig majortype="{73646976-0000-0010-8000-00AA00389B71}"
                   streamnumber="2"
                   streamname="Video Stream"
                   inputname="Video409"
                   bitrate="232000"
                   bufferwindow="-1"
                   reliabletransport="0"
                   decodercomplexity="AU"
                   rfc1766langid="en-us"
 >
                     <videomediaprops maxkeyframespacing="60000000"
                                     quality="70"/>
             <wmmediatype subtype="{33564D57-0000-0010-8000-00AA00389B71}"
                   bfixedsizesamples="0"
                   btemporalcompression="1"
                   lsamplesize="0">
       <videoinfoheader dwbitrate="232000"
                        dwbiterrorrate="0"
                        avgtimeperframe="333333">
        <rcsource left="0"
                  top="0"
                  right="1280"
                  bottom="720"/>
        <rctarget left="0"
                  top="0"
                  right="1280"
                  bottom="720"/>
            <bitmapinfoheader biwidth="1280"
                              biheight="720"
                              biplanes="1"
                              bibitcount="24"
                              bicompression="WMV3"
                              bisizeimage="0"
                              bixpelspermeter="0"
                              biypelspermeter="0"
                              biclrused="0"
                              biclrimportant="0"/>
       </videoinfoheader>
            </wmmediatype>
            </streamconfig>
    </profile>